Date,ADS,AGB2,AU9,AXV,BAYN,BX7,DAI,HE9,N9E1,OS3,PK5,SE7,SES
2018-01-01,167.35,103.288,26.663,40.026,103.875,27.457,70.726,2.953,4.139,2.568,63.962,19.803,12.99
2018-01-02,167.65,105.4,26.45,39.8,103.1,27.28,70.7,2.894,4.1,2.62,65.3,19.3,13.655
2018-01-03,168.7,105.6,26.04,39.6,103.26,27.35,71.25,2.922,4.485,2.665,65.2,19.3,13.335
2018-01-04,170.7,106.0,26.2,40.2,104.4,27.45,71.94,2.87,4.13,2.65,67.8,19.2,12.89
2018-01-05,172.15,107.0,26.82,39.6,108.5,27.92,72.86,2.97,4.4,2.64,67.5,19.5,12.755
2018-01-08,173.1,106.2,27.04,39.4,108.3,27.81,73.71,3.01,4.37,2.58,67.6,19.6,12.895
2018-01-09,169.4,105.6,27.14,39.2,107.4,27.83,74.3,3.064,4.365,2.73,67.7,20.2,13.01
2018-01-10,167.9,104.4,27.08,38.4,106.0,27.4,74.02,3.024,4.615,2.725,69.0,20.4,13.02
2018-01-11,166.85,103.8,26.91,38.6,105.6,27.13,73.85,2.986,4.24,2.67,68.0,20.4,12.935
2018-01-12,168.55,102.6,26.22,38.6,105.0,27.08,74.27,3.022,4.24,2.63,67.1,19.9,13.33
2018-01-15,169.35,102.0,26.11,38.4,104.5,27.21,73.97,2.986,4.165,2.56,65.7,19.8,13.65
2018-01-16,168.05,100.6,26.65,38.2,104.3,27.29,74.1,3.088,4.255,2.64,65.2,19.9,13.8
2018-01-17,167.5,102.2,26.8,39.6,103.6,27.38,74.02,2.968,4.335,2.615,66.6,20.2,14.045
2018-01-18,171.3,100.4,26.5,38.6,103.96,27.35,74.49,3.024,4.335,2.51,65.7,20.0,13.65
2018-01-19,182.55,99.3,27.48,38.8,104.48,27.32,74.92,3.034,4.29,2.55,65.9,20.0,13.08
2018-01-22,183.65,101.8,27.08,38.0,105.88,27.41,75.35,3.046,4.24,2.66,66.6,20.0,13.41
2018-01-23,185.6,100.6,26.99,40.4,109.3,27.87,75.78,3.064,4.44,2.585,67.3,20.0,13.7
2018-01-24,184.55,100.0,26.64,40.2,108.6,27.84,75.41,3.058,4.5,2.545,67.6,20.2,13.535
2018-01-25,183.55,100.0,26.85,39.6,107.04,27.84,74.48,3.034,4.855,2.535,66.8,19.5,13.0
2018-01-26,184.85,99.6,26.4,40.0,107.0,27.77,74.77,2.992,4.715,2.535,67.3,19.4,12.325
2018-01-29,184.3,100.0,26.73,38.8,106.8,28.09,74.81,3.038,4.725,2.48,67.8,19.6,12.6
2018-01-30,184.85,99.0,27.03,38.95,105.7,27.28,74.0,2.992,4.71,2.51,67.35,19.35,12.37
2018-01-31,187.7,98.0,26.63,39.58,105.58,27.23,73.92,2.924,4.69,2.54,65.55,19.13,12.55
2018-02-01,184.4,99.2,26.8,38.76,103.86,27.17,72.45,2.924,4.75,2.53,65.35,17.33,12.905
2018-02-02,179.9,99.6,25.93,39.32,102.4,26.8,71.35,2.956,4.66,2.49,63.4,17.04,12.6
2018-02-05,177.9,98.0,24.77,39.26,100.1,26.49,70.33,2.91,4.65,2.47,62.1,16.56,12.445
2018-02-06,176.25,96.2,24.79,38.23,99.5,25.71,70.37,2.844,4.37,2.34,61.3,16.8,12.44
2018-02-07,183.3,97.8,24.9,37.65,99.64,26.01,70.8,2.844,4.48,2.44,60.75,15.95,12.33
2018-02-08,177.6,98.5,25.07,39.13,97.18,25.47,70.26,2.896,4.65,2.44,60.2,16.0,12.66
2018-02-09,174.8,96.2,24.73,40.25,94.88,25.55,69.51,2.812,4.67,2.45,59.4,15.5,12.605
2018-02-12,178.7,97.5,24.57,38.66,98.63,25.87,71.45,2.764,4.45,2.42,59.7,16.33,11.585
2018-02-13,176.25,95.4,24.34,38.78,97.48,25.46,70.8,2.764,4.4,2.33,59.75,15.2,11.0
2018-02-14,178.2,96.5,24.9,39.13,98.62,25.62,71.94,2.68,4.34,2.35,59.35,14.82,11.46
2018-02-15,177.7,96.3,25.07,38.42,97.81,25.61,71.9,2.74,4.33,2.39,59.35,15.01,11.175
2018-02-16,180.8,97.1,25.97,38.39,99.01,25.92,72.5,2.704,4.34,2.5,60.0,15.16,11.755
2018-02-19,180.2,97.0,25.58,39.49,97.79,26.04,70.66,2.748,4.48,2.44,60.0,15.49,11.66
2018-02-20,182.9,95.1,25.87,39.7,99.2,25.73,70.6,2.742,4.49,2.43,58.95,15.33,11.85
2018-02-21,180.8,97.0,25.55,39.3,98.46,26.14,70.42,2.736,4.37,2.38,58.35,15.91,11.915
2018-02-22,180.3,96.0,25.28,39.55,98.19,26.17,69.96,2.682,4.46,2.41,58.25,15.07,11.78
2018-02-23,181.9,97.3,25.28,39.73,98.27,26.68,71.33,2.736,4.49,2.46,59.05,15.28,11.3
2018-02-26,182.0,97.6,25.36,38.43,98.79,26.75,70.4,2.79,4.36,2.51,59.5,15.45,12.67
2018-02-27,181.35,97.8,25.56,38.58,97.78,26.74,70.35,2.832,4.53,2.52,60.35,15.64,12.515
2018-02-28,183.2,98.1,25.6,38.39,96.56,26.4,70.6,2.842,4.71,2.38,59.6,15.38,13.19
2018-03-01,175.5,98.3,25.27,38.52,94.87,26.32,68.92,2.786,4.6,2.3,61.1,15.53,13.435
2018-03-02,173.75,97.5,24.45,37.02,93.46,26.52,67.86,2.764,4.47,2.2,61.6,15.06,13.01
2018-03-05,176.2,96.4,24.37,40.07,95.34,26.22,67.74,2.712,4.3,2.23,56.65,15.0,12.85
2018-03-06,174.3,97.9,24.37,40.66,95.37,26.17,67.77,2.728,4.4,2.25,56.05,15.0,12.945
2018-03-07,174.1,98.3,25.78,41.2,96.7,26.31,67.88,2.756,4.35,2.25,54.9,15.0,12.435
2018-03-08,175.35,98.1,26.76,40.08,96.99,26.65,67.94,2.728,4.4,2.31,55.55,14.97,12.81
2018-03-09,174.1,97.3,27.68,41.8,97.92,26.58,67.86,2.76,4.46,2.38,56.85,14.83,12.53
2018-03-12,171.5,97.8,27.59,42.6,97.9,26.52,68.34,2.746,4.37,2.35,56.95,15.71,12.935
2018-03-13,171.65,99.1,27.82,43.57,95.57,26.34,67.66,2.718,4.5,2.35,57.95,15.03,12.51
2018-03-14,188.45,99.1,27.18,43.69,95.73,26.22,67.62,2.778,4.44,2.35,56.85,14.6,12.75
2018-03-15,192.05,98.3,26.19,43.41,95.1,25.6,68.19,2.774,4.31,2.32,57.15,14.68,12.9
2018-03-16,195.25,97.3,25.8,42.64,96.15,25.7,69.3,2.772,4.27,2.19,57.05,14.63,12.875
2018-03-19,191.8,97.3,25.13,45.38,93.96,25.21,68.66,2.774,4.58,2.18,56.75,14.9,12.91
2018-03-20,194.75,95.9,25.32,45.7,94.5,25.08,68.76,2.764,4.6,2.09,56.6,14.6,12.7
2018-03-21,196.5,97.3,25.4,44.8,94.79,24.76,68.4,2.756,4.58,2.14,56.3,14.6,12.015
2018-03-22,197.1,95.5,24.75,45.52,93.06,24.37,67.21,2.8,4.52,2.06,56.05,14.6,12.065
2018-03-23,195.15,95.7,24.93,45.03,90.21,24.61,65.74,2.794,4.4,2.07,55.35,14.6,12.1
2018-03-26,193.85,95.9,25.0,44.8,90.3,24.68,65.96,2.842,4.48,2.0,55.65,13.99,12.005
2018-03-27,193.95,95.5,25.39,44.8,91.03,24.8,66.75,2.776,4.39,1.91,56.1,14.15,12.06
2018-03-28,193.1,93.9,25.45,42.99,90.94,24.89,66.58,2.824,4.49,1.91,56.3,13.85,11.45
2018-03-29,196.5,94.7,25.34,44.73,92.25,24.92,69.07,2.824,4.39,1.9,55.8,13.85,11.065
2018-03-30,196.5,94.7,25.34,44.73,92.25,24.92,69.07,2.824,4.39,1.9,55.8,13.85,11.065
2018-04-02,196.5,94.7,25.34,44.73,92.25,24.92,69.07,2.824,4.39,1.9,55.8,13.85,11.065
2018-04-03,195.85,95.6,25.47,44.07,91.05,24.73,68.93,2.956,4.47,1.88,56.2,13.92,10.85
2018-04-04,198.35,94.3,25.26,44.57,91.6,24.56,68.44,2.968,4.35,1.91,55.85,14.22,11.11
2018-04-05,204.1,94.8,25.65,46.17,93.99,25.19,69.51,2.986,4.44,1.96,55.75,14.27,11.415
2018-04-06,203.4,94.1,26.23,46.13,93.61,25.2,65.53,2.968,4.31,2.03,56.4,14.1,11.41
2018-04-09,203.0,94.7,26.23,44.35,95.3,25.4,65.08,2.968,4.41,2.16,56.3,14.26,11.46
2018-04-10,204.7,95.4,26.93,44.43,98.21,25.44,65.82,3.008,3.85,2.09,56.45,14.39,11.255
2018-04-11,206.4,95.1,26.94,43.68,97.09,25.67,65.23,3.022,3.67,2.15,57.15,14.42,11.43
2018-04-12,209.6,96.6,26.98,44.44,98.0,25.52,65.34,3.006,3.96,2.15,56.8,14.3,11.605
2018-04-13,210.9,95.0,27.16,43.69,98.9,25.62,65.56,2.978,3.86,2.16,57.15,14.57,11.57
2018-04-16,211.2,95.3,26.8,44.32,97.98,25.72,65.39,2.978,3.65,2.05,57.1,14.67,11.52
2018-04-17,213.5,95.1,26.74,43.52,100.66,25.92,65.55,2.986,3.93,1.98,55.1,15.21,11.545
2018-04-18,213.9,95.8,27.0,43.86,100.82,25.42,65.26,3.03,3.72,2.02,55.45,15.03,12.0
2018-04-19,210.5,95.8,27.2,44.12,99.38,25.12,64.96,3.006,3.74,2.05,56.15,15.31,13.0
2018-04-20,212.2,95.7,26.86,42.99,98.76,25.76,65.04,3.01,3.91,2.04,56.85,15.19,13.46
2018-04-23,211.3,97.9,26.97,43.79,98.55,26.1,65.42,2.986,3.99,1.95,56.5,15.06,11.7
2018-04-24,203.0,96.1,27.06,45.27,97.1,25.7,64.55,3.0,3.99,2.06,56.55,15.24,11.595
2018-04-25,202.4,93.9,27.04,45.57,97.5,24.65,64.78,3.046,4.03,2.06,55.8,15.04,11.515
2018-04-26,204.2,95.9,27.4,44.41,98.75,25.02,65.05,3.026,4.05,1.96,56.9,15.15,11.64
2018-04-27,205.8,97.9,27.86,48.45,98.8,25.44,65.56,3.056,4.04,1.99,58.0,15.26,13.03
2018-04-30,203.5,97.2,27.55,48.05,99.1,25.41,65.24,3.062,3.98,1.96,58.1,15.21,12.795
2018-05-01,203.5,97.2,27.55,48.05,99.1,25.41,65.24,3.062,3.98,1.96,58.1,15.21,12.795
2018-05-02,208.0,99.5,28.0,46.5,99.87,25.42,66.58,3.058,4.14,2.14,58.45,14.98,13.295
2018-05-03,195.45,98.9,28.02,45.65,100.28,24.81,66.56,3.044,4.07,2.08,58.75,15.05,13.185
2018-05-04,193.0,99.5,28.05,46.44,101.62,25.01,66.33,3.05,4.02,2.12,58.55,15.12,13.065
2018-05-07,194.6,97.2,28.21,46.91,102.3,24.63,66.89,3.058,4.11,2.23,58.5,15.02,13.0
2018-05-08,193.75,95.5,28.26,46.22,101.6,24.58,66.74,3.084,4.01,2.13,59.15,15.2,13.07
2018-05-09,191.5,96.7,28.12,46.51,102.5,24.29,67.18,3.042,4.14,2.13,60.25,15.16,13.125
2018-05-10,190.5,98.0,28.25,46.24,102.92,24.16,67.04,3.034,4.3,2.13,60.5,15.36,13.2
2018-05-11,189.25,100.0,27.97,46.05,102.04,24.09,66.97,2.968,4.13,2.13,60.35,15.64,13.315
2018-05-14,189.15,98.6,28.28,46.37,102.6,23.87,66.66,2.964,4.05,2.1,60.55,16.0,13.565
2018-05-15,189.05,99.5,28.1,46.97,101.98,23.35,66.86,3.0,4.14,2.1,60.9,15.29,13.07
2018-05-16,193.9,99.5,27.9,48.14,103.48,23.42,66.95,2.964,4.12,2.15,61.05,15.45,12.905
2018-05-17,194.95,98.0,27.9,48.08,103.48,23.5,67.56,2.964,4.12,2.15,61.15,15.45,12.905
2018-05-18,195.55,100.0,27.31,48.14,104.7,23.12,67.37,2.828,4.1,2.19,62.05,15.5,13.06
2018-05-21,195.55,100.0,27.31,48.14,104.7,23.12,67.37,2.828,4.1,2.19,62.05,15.5,13.06
2018-05-22,195.55,98.4,26.44,47.25,105.46,23.04,68.49,2.776,4.35,2.16,62.35,15.36,13.245
2018-05-23,193.9,100.0,26.14,48.1,103.42,23.3,67.13,2.81,4.7,2.09,62.4,15.18,13.425
2018-05-24,193.75,97.7,25.97,46.54,102.76,23.07,65.5,2.824,4.69,2.02,62.5,14.84,13.76
2018-05-25,194.2,99.1,25.78,48.27,103.0,23.05,64.85,2.826,4.66,2.02,61.95,15.04,13.785
2018-05-28,195.8,97.6,25.4,46.79,99.82,22.96,64.3,2.736,4.56,2.0,62.45,15.88,13.685
2018-05-29,192.2,98.3,24.6,48.21,99.68,22.69,63.01,2.62,4.6,2.12,62.6,15.09,14.29
2018-05-30,196.55,98.7,24.51,47.24,103.16,22.89,62.96,2.622,4.54,2.09,61.5,14.76,14.675
2018-05-31,194.5,96.1,24.81,48.1,101.8,22.83,61.61,2.618,4.42,2.02,60.8,15.0,14.61
2018-06-01,193.7,94.8,25.35,46.3,103.26,23.05,61.91,2.64,4.53,2.19,60.85,14.77,15.46
2018-06-04,195.25,97.2,25.35,46.59,102.8,23.12,62.5,2.624,4.5,2.34,62.35,14.96,15.8
2018-06-05,196.6,97.3,24.8,46.82,101.08,22.86,62.37,2.688,4.4,2.33,61.45,15.51,15.59
2018-06-06,204.2,97.1,24.79,46.54,99.68,22.69,62.35,2.706,4.47,2.33,61.2,14.84,15.52
2018-06-07,195.95,96.1,24.7,46.57,98.7,22.65,62.0,2.7,4.37,2.25,59.95,14.88,15.1
2018-06-08,199.5,97.3,23.85,46.95,98.27,22.55,61.89,2.578,4.43,2.28,60.55,14.82,15.585
2018-06-11,199.0,96.9,24.15,46.82,97.26,22.63,61.19,2.662,4.32,2.33,60.15,14.82,15.75
2018-06-12,197.05,95.7,24.2,46.42,96.22,22.78,62.25,2.688,4.36,2.34,60.65,15.37,15.82
2018-06-13,194.8,96.1,24.51,46.25,98.7,21.53,61.86,2.704,4.34,2.34,60.65,14.75,15.685
2018-06-14,199.25,95.6,24.38,45.79,101.0,21.72,63.24,2.694,4.28,2.29,60.95,14.86,15.62
2018-06-15,200.1,95.7,24.57,46.53,100.18,21.26,62.22,2.738,4.34,2.29,60.1,14.86,15.215
2018-06-18,194.85,96.1,24.63,46.37,98.64,21.21,61.85,2.624,4.3,2.27,59.0,14.49,15.32
2018-06-19,189.95,93.6,24.63,46.52,96.88,20.88,61.17,2.656,4.08,2.26,58.9,14.39,15.135
2018-06-20,189.15,88.3,25.07,46.84,97.18,20.71,60.64,2.63,4.18,2.11,58.15,14.64,15.255
2018-06-21,190.65,87.5,25.07,46.67,96.47,20.6,58.04,2.652,4.14,2.1,58.85,14.63,15.95
2018-06-22,191.0,88.0,24.46,46.61,99.25,20.79,57.73,2.638,4.03,2.13,58.2,14.49,16.15
2018-06-25,186.6,89.8,24.93,46.75,96.1,20.77,56.42,2.606,4.13,2.14,58.3,14.69,15.915
2018-06-26,188.4,87.8,24.99,46.9,96.61,20.38,56.04,2.66,4.16,2.15,57.6,14.73,15.23
2018-06-27,187.25,87.6,24.52,45.52,95.63,20.47,55.54,2.664,4.12,2.15,57.2,14.72,15.65
2018-06-28,183.55,90.1,25.09,44.99,94.33,20.26,55.36,2.646,4.25,2.18,56.85,14.91,15.98
2018-06-29,187.0,89.3,24.82,45.26,94.8,19.275,55.33,2.694,3.93,2.25,56.35,14.61,15.8
2018-07-02,183.8,89.9,25.04,45.53,95.17,19.545,55.73,2.696,4.02,2.3,56.65,14.31,15.385
2018-07-03,184.9,88.9,25.04,45.02,94.67,19.715,55.81,2.738,4.12,2.29,56.6,15.18,15.905
2018-07-04,182.25,89.7,25.02,44.92,94.8,20.51,57.1,2.774,4.06,2.31,56.6,14.43,15.84
2018-07-05,182.2,89.2,25.0,44.69,94.49,20.97,58.75,2.744,4.04,2.25,56.2,14.34,15.615
2018-07-06,181.75,90.1,24.93,45.0,93.24,20.97,58.29,2.768,4.06,2.28,56.15,14.32,15.545
2018-07-09,182.0,90.1,24.98,45.5,94.6,20.88,58.22,2.778,4.0,2.28,57.35,14.47,16.045
2018-07-10,184.6,89.1,24.87,46.78,94.93,20.9,58.37,2.802,3.99,2.17,57.5,14.66,15.955
2018-07-11,183.2,87.3,24.89,46.87,92.57,20.72,57.4,2.744,3.97,2.15,56.95,14.92,16.37
2018-07-12,185.3,85.7,24.76,47.18,92.89,20.61,57.15,2.706,4.03,2.1,57.25,14.37,16.91
2018-07-13,187.9,85.6,25.59,47.08,93.85,20.31,57.33,2.77,3.89,2.04,57.35,14.56,17.695
2018-07-16,188.65,85.6,25.21,46.25,93.2,20.23,57.15,2.796,3.89,2.04,57.5,14.5,17.1
2018-07-17,186.0,86.1,25.11,46.66,93.87,19.94,58.05,2.742,3.86,2.06,56.9,14.59,16.825
2018-07-18,189.15,86.1,25.56,47.2,93.6,20.19,58.33,2.818,3.88,2.04,57.6,15.05,16.36
2018-07-19,189.1,86.0,25.39,47.4,92.17,20.09,58.71,2.772,3.9,2.01,57.55,14.66,15.9
2018-07-20,189.55,87.5,25.12,47.23,92.0,20.08,57.23,2.764,3.87,2.01,56.5,14.58,15.825
2018-07-23,189.4,86.3,25.32,47.06,92.66,20.47,57.6,2.762,3.82,1.95,55.8,14.62,15.095
2018-07-24,190.1,86.8,25.33,47.32,93.54,19.97,59.0,2.68,3.9,2.05,55.8,14.68,15.575
2018-07-25,188.55,87.7,25.42,47.03,92.9,19.67,58.05,2.726,4.0,2.0,55.45,14.71,15.545
2018-07-26,187.55,87.0,25.42,48.33,94.5,20.06,59.4,2.688,3.99,2.02,55.7,14.78,15.7
2018-07-27,189.05,23.8,25.96,46.89,95.8,20.46,59.16,2.848,3.87,1.96,56.5,15.01,17.22
2018-07-30,188.55,23.5,25.57,46.15,95.22,21.31,59.42,2.802,3.85,1.98,56.15,15.27,17.475
2018-07-31,189.1,23.2,25.3,46.84,95.27,21.03,59.39,2.836,3.83,1.99,56.35,15.14,17.145
2018-08-01,187.9,22.9,25.42,46.09,95.75,21.04,58.17,2.816,3.79,2.0,56.3,15.66,17.25
2018-08-02,185.4,22.6,24.7,47.29,94.17,20.85,57.58,2.81,3.84,1.97,56.9,14.93,16.665
2018-08-03,189.4,22.3,24.73,46.75,95.48,21.36,58.23,2.828,3.86,1.95,57.55,14.87,17.5
2018-08-06,188.1,22.55,25.0,46.4,94.84,21.08,58.18,2.786,3.86,1.95,58.0,15.51,17.355
2018-08-07,190.1,22.25,25.0,45.16,96.27,21.34,59.14,2.844,3.78,1.99,58.3,15.62,18.03
2018-08-08,190.7,21.95,25.64,45.88,96.21,21.15,59.03,2.91,3.99,2.01,59.2,15.04,17.755
2018-08-09,207.9,21.65,25.39,44.82,95.41,21.14,59.15,2.846,3.8,2.02,60.0,15.12,18.09
2018-08-10,205.6,22.1,25.07,46.04,93.5,20.64,57.39,2.806,3.68,2.01,60.4,15.0,18.055
2018-08-13,208.0,21.8,24.76,46.53,83.67,20.71,57.22,2.778,3.64,2.0,60.55,14.93,18.18
2018-08-14,209.5,21.35,24.0,45.24,84.01,20.58,56.78,2.802,3.61,2.01,58.05,15.24,18.095
2018-08-15,206.3,21.0,22.0,47.12,81.05,20.21,55.44,2.8,3.7,1.97,57.65,15.27,17.64
2018-08-16,208.5,21.5,18.45,47.26,77.46,20.3,55.55,2.786,3.64,1.97,55.2,15.12,17.8
2018-08-17,206.9,21.2,18.445,46.69,79.18,20.16,55.16,2.74,3.7,1.94,52.0,15.13,17.52
2018-08-20,209.4,20.9,18.51,46.84,81.3,20.65,55.44,2.756,3.76,1.94,51.9,14.91,17.555
2018-08-21,211.0,21.4,18.835,47.91,82.76,20.66,55.91,2.724,3.65,2.01,50.8,14.8,17.655
2018-08-22,210.0,21.1,18.475,47.37,83.86,20.55,55.45,2.824,3.62,2.05,52.15,14.89,17.26
2018-08-23,212.0,20.8,18.105,52.5,81.75,20.59,54.5,2.79,3.63,2.11,51.65,14.52,17.205
2018-08-24,213.5,20.5,18.75,48.5,82.11,20.59,54.84,2.792,3.64,2.11,52.1,14.33,17.37
2018-08-27,215.9,20.8,18.84,47.19,82.73,20.57,56.1,2.762,3.63,2.01,51.55,14.44,17.46
2018-08-28,215.3,21.5,18.19,48.35,82.61,20.44,56.57,2.722,3.52,1.99,51.95,14.44,17.55
2018-08-29,214.7,20.45,18.115,47.44,82.48,20.32,56.86,2.7,3.62,1.99,53.05,15.03,17.435
2018-08-30,215.2,20.15,18.05,47.01,81.5,19.89,56.82,2.706,3.55,1.94,53.7,14.44,17.26
2018-08-31,214.5,20.35,18.115,48.04,80.1,19.905,55.71,2.71,3.57,1.93,53.55,14.38,17.2
2018-09-03,215.9,20.8,18.005,47.22,80.9,19.855,55.06,2.73,3.54,2.01,54.0,14.28,16.95
2018-09-04,210.6,21.15,18.165,47.32,80.0,19.84,54.26,2.778,3.55,1.96,54.45,14.38,17.215
2018-09-05,207.0,21.0,17.57,46.96,78.65,19.895,54.39,2.742,3.45,1.98,52.75,14.18,16.555
2018-09-06,206.0,20.7,17.565,47.93,75.57,19.9,54.39,2.766,3.44,1.97,52.75,14.51,16.585
2018-09-07,206.9,20.4,17.94,46.52,73.6,20.11,54.44,2.746,3.5,1.98,52.55,13.94,16.72
2018-09-10,207.6,20.1,17.675,45.71,72.66,20.73,54.44,2.766,3.52,1.99,52.2,14.02,16.735
2018-09-11,207.0,20.3,17.475,45.1,70.2,20.31,54.16,2.81,3.38,1.97,52.15,14.01,16.8
2018-09-12,209.1,20.65,18.195,46.5,70.49,20.27,54.29,2.866,3.47,1.98,53.3,13.75,16.45
2018-09-13,210.0,20.35,17.985,46.81,70.43,20.46,55.33,2.826,3.41,2.02,54.7,13.85,16.27
2018-09-14,210.4,20.05,17.88,46.35,72.15,20.49,55.25,2.86,3.46,2.01,55.1,13.99,16.8
2018-09-17,208.0,19.76,17.805,46.77,73.1,20.55,55.44,2.856,3.44,2.02,54.45,13.98,16.955
2018-09-18,209.6,20.4,18.505,47.88,73.5,20.56,55.81,2.836,3.43,2.0,50.0,14.87,16.78
2018-09-19,208.9,20.2,18.25,46.96,74.35,20.65,56.34,2.852,3.44,1.98,46.34,14.62,16.645
2018-09-20,209.3,20.1,18.46,48.57,76.39,21.12,57.26,2.826,3.34,1.92,46.32,14.55,16.89
2018-09-21,211.1,19.64,19.01,47.24,76.31,20.64,57.74,2.774,3.34,1.94,46.1,14.73,16.765
2018-09-24,208.5,19.82,18.68,47.12,76.37,20.77,56.16,2.754,3.31,1.96,46.0,14.83,17.25
2018-09-25,211.1,19.6,18.68,46.38,75.84,20.52,54.86,2.726,3.61,1.9,45.78,14.7,17.825
2018-09-26,209.4,19.12,18.59,46.37,76.4,20.33,54.89,2.726,3.42,1.91,47.4,14.36,17.98
2018-09-27,211.6,19.02,18.0,47.89,78.03,20.75,55.56,2.744,3.36,1.91,46.72,14.33,18.84
2018-09-28,210.5,19.06,17.75,47.25,76.12,20.63,54.41,2.704,3.48,1.82,46.96,14.41,18.82
2018-10-01,213.5,19.22,18.105,47.37,75.49,20.54,54.96,2.728,3.52,1.84,46.7,14.4,19.41
2018-10-02,213.7,18.78,18.195,48.62,74.77,20.69,56.03,2.69,3.5,1.8,47.04,14.62,19.37
2018-10-03,213.7,18.78,18.195,48.62,74.77,20.69,56.03,2.69,3.5,1.8,47.04,14.62,19.37
2018-10-04,208.5,18.82,18.04,48.04,75.04,20.63,56.31,2.688,3.47,1.68,46.84,14.63,19.335
2018-10-05,207.8,18.78,18.21,48.87,74.4,20.98,55.47,2.636,3.41,1.66,45.36,14.59,19.895
2018-10-08,206.1,19.1,17.695,47.57,75.13,20.85,54.64,2.588,3.32,1.67,44.5,14.55,19.505
2018-10-09,204.5,18.66,17.365,48.92,74.97,20.95,54.45,2.52,3.34,1.65,44.28,14.92,19.685
2018-10-10,195.35,18.16,17.42,48.43,75.01,22.14,53.66,2.582,3.32,1.6,43.98,14.25,19.535
2018-10-11,192.6,18.0,17.45,46.87,77.79,22.17,52.91,2.49,3.27,1.55,42.52,13.95,18.945
2018-10-12,192.0,16.98,17.66,46.37,76.2,21.91,52.76,2.49,3.31,1.59,42.44,14.0,19.69
2018-10-15,194.0,17.48,17.5,44.62,78.21,21.74,52.94,2.444,3.37,1.57,41.52,14.15,20.15
2018-10-16,199.85,16.84,17.385,46.31,78.7,22.07,53.39,2.498,3.25,1.52,43.28,14.32,20.14
2018-10-17,202.5,16.14,17.385,46.75,78.11,22.42,53.07,2.434,3.25,1.54,43.72,14.52,20.49
2018-10-18,198.05,17.16,17.77,47.27,78.09,22.64,52.07,2.406,3.25,1.54,43.42,14.51,20.0
2018-10-19,203.0,17.22,17.41,46.01,77.53,22.62,51.57,2.434,3.34,1.63,42.74,14.42,20.32
2018-10-22,201.3,17.36,17.67,47.44,76.73,22.96,50.77,2.444,3.25,1.69,41.08,14.74,20.39
2018-10-23,198.5,16.88,17.33,46.45,69.85,23.14,50.81,2.406,3.3,1.64,40.94,14.38,20.16
2018-10-24,201.3,16.46,17.69,44.97,68.48,23.75,50.14,2.404,3.29,1.48,40.56,14.47,20.31
2018-10-25,207.2,17.6,17.495,47.03,66.6,23.33,51.48,2.39,3.25,1.48,40.36,14.15,19.855
2018-10-26,204.6,17.58,17.3,47.65,66.19,23.47,51.53,2.476,3.25,1.48,40.22,14.31,18.625
2018-10-29,205.0,16.92,17.64,48.41,67.91,22.82,52.19,2.476,3.25,1.56,40.84,14.41,18.79
2018-10-30,201.6,17.48,17.78,48.01,66.8,22.91,52.2,2.43,3.29,1.45,40.58,14.41,18.775
2018-10-31,208.0,16.98,17.825,49.01,68.17,22.45,52.69,2.416,3.26,1.53,42.52,13.92,19.085
2018-11-01,204.1,17.36,17.96,47.91,69.76,22.99,52.73,2.428,3.21,1.49,42.0,14.01,18.87
2018-11-02,206.5,17.16,18.01,48.37,70.11,22.71,53.35,2.426,3.27,1.48,44.4,14.11,18.86
2018-11-05,207.4,17.54,17.745,47.84,70.57,22.96,52.8,2.448,3.26,1.47,43.72,14.61,19.11
2018-11-06,206.6,17.44,17.54,47.58,70.27,22.59,52.38,2.416,3.29,1.44,43.3,14.17,18.83
2018-11-07,199.6,17.18,18.1,48.8,71.87,23.11,52.6,2.562,3.32,1.45,42.94,14.12,19.02
2018-11-08,201.2,17.36,18.05,48.83,71.1,23.18,51.44,2.528,3.29,1.46,43.9,14.04,19.03
2018-11-09,203.4,17.26,17.865,47.81,70.66,23.1,50.82,2.464,3.25,1.37,42.96,14.15,19.0
2018-11-12,202.4,18.02,18.26,48.19,68.61,22.75,50.57,2.544,3.19,1.39,41.88,14.22,18.5
2018-11-13,206.2,17.56,18.195,48.26,66.7,22.77,51.9,2.546,3.21,1.35,41.98,14.63,18.86
2018-11-14,205.0,17.3,18.165,46.54,64.5,23.05,51.8,2.54,3.12,1.29,42.02,14.12,18.685
2018-11-15,205.9,17.34,18.555,45.95,64.3,23.09,51.17,2.494,3.06,1.22,41.0,14.2,18.07
2018-11-16,202.0,17.32,18.145,45.43,62.67,23.36,50.7,2.482,3.05,1.25,39.82,14.14,17.855
2018-11-19,200.2,17.2,18.25,45.37,62.12,23.59,50.46,2.474,3.03,1.34,40.28,14.25,18.705
2018-11-20,199.15,17.42,17.715,44.53,61.44,23.12,49.94,2.466,3.07,1.22,40.28,14.13,17.58
2018-11-21,204.1,17.16,17.74,44.91,62.85,23.08,51.0,2.46,3.08,1.22,40.44,14.08,18.24
2018-11-22,201.9,17.38,17.855,44.82,62.47,22.96,50.34,2.446,3.09,1.22,40.42,14.06,18.495
2018-11-23,200.6,17.22,18.295,45.75,62.83,23.01,50.61,2.432,3.04,1.19,40.42,14.07,17.99
2018-11-26,199.15,17.54,18.7,45.18,64.48,23.74,51.88,2.4,3.09,1.18,41.3,14.65,17.74
2018-11-27,199.45,17.6,18.495,46.42,64.09,23.9,50.77,2.474,3.14,1.15,43.3,14.4,17.895
2018-11-28,199.7,17.38,18.06,44.76,64.68,24.2,51.03,2.474,3.11,1.18,43.32,14.59,18.465
2018-11-29,197.85,17.04,18.5,45.16,63.69,24.14,50.61,2.45,3.03,1.28,44.4,14.53,18.39
2018-11-30,195.2,17.54,18.24,46.3,64.9,24.34,49.935,2.392,3.08,1.28,44.4,13.7,18.67
